| STV4030A - Extracting data from texts
…
  sotu_df <- tibble(pres, pres_number,
                    date,
                    reactions = str_c(reactions, collapse = "/"), 
                    n_laugh, n_applause)

  return(sotu_df)
  
})

sotu_data <- bind_rows(sotu_data)

sotu_data

# A tibble: 241 × 6
   pres         pres_number date       reactions              n_laugh n_applause
   <chr>        <chr>       <date>     <chr>                    <int>      <int>
 1 Dwight D.    34th        1954-01-07 ""                           0          0
 2 Barack Obama 44th        2013-02-12 "Laughter/Applause/Ap…       1          4
 3 Dwight D.    34th        1955-01-06 ""                           0          0
 4 Barack Obama 44th        2014-01-28 "Applause/applause/Ap…       8          5
 5 Dwight D.    34th        1956-01-05 "Read before a joint …       0          0
 6 Dwight D.    34th        1956-01-05 "Recorded on film and…       0          0
 7 Barack Obama 44th        2015-01-20 "Laughter/Laughter/la…       9          5
 8 Dwight D.    34th        1957-01-10 ""                           0          0
 9 Barack Obama 44th        2016-01-12 "Laughter/Laughter/la…      11          5
10 Dwight D.    34th        1958-01-09 ""                           0          0
# ℹ 231 more rows
…
