| STV4030A - Preprocessing
…
… we immediately recognize that this is a State of the Union speech by a US President. It is important to bear this assumption in mind when we preprocess text, if it makes sense for the task we want to do, and whether we want to alleviate the assumption through our preprocessing.

Counting words

library(tidytext)
library(janeaustenr)

austen_count <- austen_books() %>%
  unnest_tokens(token, text) %>%
  count(book, token, sort = TRUE) %>%
  arrange(desc(n))

austen_count

# A tibble: 40,379 × 3
   book              token     n
   <fct>             <chr> <int>
 1 Mansfield Park    the    6206
 2 Mansfield Park    to     5475
 3 Mansfield Park    and    5438
 4 Emma              to     5239
 5 Emma              the    5201
 6 Emma              and    4896
 7 Mansfield Park    of     4778
 8 Pride & Prejudice the    4331
 9 Emma              of     4291
10 Pride & Prejudice to     4162
# ℹ 40,369 more rows
…
where: \[ tf = \frac{token\ count\ in\ document}{total\ tokens\ in\ the\ document} \]

and: \[ idf = log(\frac{total\ amount\ of\ documents}{number\ of\ documents\ that\ contains\ the\ token}) \]

We can calcultate TF-IDF with the bind_tf_idf() function:

austen_tfidf <- austen_books() %>%
  unnest_tokens(token, text) %>%
  count(book, token, sort = TRUE) %>%
  bind_tf_idf(term = token, document = book, n = n) %>%
  arrange(desc(tf_idf))

austen_tfidf

# A tibble: 40,379 × 6
   book                token         n      tf   idf  tf_idf
   <fct>               <chr>     <int>   <dbl> <dbl>   <dbl>
 1 Sense & Sensibility elinor      623 0.00519  1.79 0.00931
 2 Sense & Sensibility marianne    492 0.00410  1.79 0.00735
 3 Mansfield Park      crawford    493 0.00307  1.79 0.00551
 4 Pride & Prejudice   darcy       373 0.00305  1.79 0.00547
 5 Persuasion          elliot      254 0.00304  1.79 0.00544
 6 Emma                emma        786 0.00488  1.10 0.00536
 7 Northanger Abbey    tilney      196 0.00252  1.79 0.00452
 8 Emma                weston      389 0.00242  1.79 0.00433
 9 Pride & Prejudice   bennet      294 0.00241  1.79 0.00431
10 Persuasion          wentworth   191 0.00228  1.79 0.00409
# ℹ 40,369 more rows
…
Tokenizing the text (spliting into words)

4

Counting the occurence of each token

5

Sorting by number of tokens

6

Same as 1-5, but now with removing stopwords

# A tibble: 5,858 × 2
   token     n
   <chr> <int>
 1 the    3329
 2 to     2808
 3 and    2800
 4 of     2570
 5 a      1594
 6 in     1389
 7 was    1337
 8 her    1203
 9 had    1187
10 she    1146
# ℹ 5,848 more rows
# A tibble: 5,732 × 2
   token       n
   <chr>   <int>
 1 <NA>     1144
 2 could     451
 3 anne      447
 4 would     355
 5 captain   303
 6 mrs       291
 7 mr        256
 8 elliot    254
 9 one       231
10 must      228
# ℹ 5,722 more rows
…
A different and more practical approach to removing stopwords is to let the corpus itself generate the stopword list by using the inverse document frequency (IDF), discussed above. The intuition being that the lower IDF, the less important the word is as a differentiator. This method is particularly useful if we want to analyze the difference between texts.

idf_order <- austen_tfidf %>% 
  arrange(idf)

persuasion %>% 
  tibble(text = .,
         line = 1:length(.)) %>% 
  unnest_tokens(token, text,
                stopwords = idf_order$token[which(idf_order$idf == 0)]) %>%
  count(token) %>% 
  arrange(desc(n))

# A tibble: 3,275 × 2
   token         n
   <chr>     <int>
 1 <NA>       3222
 2 anne        447
 3 captain     303
 4 elliot      254
 5 wentworth   191
 6 charles     155
 7 walter      123
 8 mary        121
 9 russell     118
10 musgrove    111
# ℹ 3,265 more rows
…
If we split into multi-word token, we call it n-grams. If we want to refer to a specific number of words in a token, we can use the following terminology:

One and one word: Unigram

Two and two words: Bigrams

Three and three words: Trigrams

To split text into unigrams, we set token = "words" in the unnest_tokens function, as shown above.

tibble(text = pp[2:length(pp)]) %>% 
  unnest_tokens(output = token, input = text)

# A tibble: 370 × 1
   token 
   <chr> 
 1 ting  
 2 ting  
 3 all   
 4 aboard
 5 the   
 6 school
 7 bus   
 8 we    
 9 are   
10 going 
# ℹ 360 more rows

To extract bigrams, set token = "ngrams" and n = 2. What would the output be if we had set n = 3?

tibble(text = pp[2:length(pp)]) %>% 
  unnest_tokens(output = token, 
                input = text,
                token = "ngrams",
                n = 2)

# A tibble: 309 × 1
   token     
   <chr>     
 1 ting ting 
 2 all aboard
 3 aboard the
 4 the school
 5 school bus
 6 we are    
 7 are going 
 8 going to  
 9 to the    
10 the zoo   
# ℹ 299 more rows
…
