| STV4030A - Reading spatial data
…
Download the ged.csv data set here (using right click => save as…). Ideally, you create a new RStudio project, including the separate data and code subfolders for all the spatial data exercises we’re going to perform in this chapter.

Here is how we read the data and how the dataset looks like:

library(tidyverse)
library(sf)

# reading the data using read_csv() from the tidyverse
ged <- read_csv("../data/spatial_data/datasets/ged.csv")

# looking at the first couple of rows
ged

# A tibble: 1,136 × 5
       id date_start latitude longitude  best
    <dbl> <date>        <dbl>     <dbl> <dbl>
 1 199885 1993-02-01     44.9      18.8     6
 2 199767 1994-03-03     44.8      15.9     1
 3 200575 1995-03-12     43.8      18.4     1
 4 200731 1995-07-07     44.1      19.3     1
 5 200732 1995-07-08     44.1      19.3     1
 6 200733 1995-07-09     44.1      19.3     2
 7 199829 1992-04-29     45.1      18.0     1
 8 200424 1992-05-17     43.8      18.4     1
 9 199360 1992-11-10     44.9      18.4    13
10 200412 1992-11-22     43.8      18.4     4
# ℹ 1,126 more rows
…
The coords = argument takes the names of the longitude and latitude columns as argument. Note that the longitude column always comes before the latitude column.

The crs = 4326 argument assigns the coordinate reference system. The number 4326 is the name of the WGS 84 coordinate reference as specified by the European Petroleum Survey Group, an organization that classifies and defines different coordinate reference systems. Point data almost always comes in the WGS 84 CRS, so you usually add the crs = 4326 argument when you convert regular data frames into spatial data frames.

How does st_as_sf() change the ged dataset? Let’s have a look:

ged

Simple feature collection with 1136 features and 3 fields
Geometry type: POINT
Dimension:     XY
Bounding box:  xmin: 15.78194 ymin: 42.71194 xmax: 19.53556 ymax: 45.18944
Geodetic CRS:  WGS 84
# A tibble: 1,136 × 4
       id date_start  best            geometry
 *  <dbl> <date>     <dbl>         <POINT [°]>
 1 199885 1993-02-01     6 (18.80833 44.87278)
 2 199767 1994-03-03     1 (15.91861 44.84444)
 3 200575 1995-03-12     1    (18.38333 43.85)
 4 200731 1995-07-07     1 (19.29694 44.10639)
 5 200732 1995-07-08     1 (19.29694 44.10639)
 6 200733 1995-07-09     2 (19.29694 44.10639)
 7 199829 1992-04-29     1  (17.98972 45.1375)
 8 200424 1992-05-17     1    (18.38333 43.85)
 9 199360 1992-11-10    13 (18.42694 44.88083)
10 200412 1992-11-22     4    (18.38333 43.85)
# ℹ 1,126 more rows
…
