| STV4030A - What is spatial data?
…
This dataset does not contain any explicit spatial information. It does store the coordinates for each city in the lat and lng columns, but it is, so far not a spatial data frame.

Here is the same data with spatial information, stored in the geometry column.

Simple feature collection with 417 features and 5 fields
Geometry type: POINT
Dimension:     XY
Bounding box:  xmin: 4.7131 ymin: 58.0333 xmax: 31.1106 ymax: 71.0373
Geodetic CRS:  WGS 84
# A tibble: 417 × 6
   city           lng   lat admin_name    population          geometry
   <chr>        <dbl> <dbl> <chr>              <dbl>       <POINT [°]>
 1 Oslo         10.8   59.9 Oslo              693494 (10.7528 59.9111)
 2 Bergen        5.32  60.4 Hordaland         257087  (5.3233 60.3925)
 3 Trondheim    10.4   63.4 Sør-Trøndelag     183378      (10.4 63.44)
 4 Stavanger     5.73  59.0 Rogaland          129300  (5.7333 58.9701)
 5 Sørum        11.3   59.9 Akershus          113659 (11.3472 59.9135)
 6 Drammen      10.2   59.8 Buskerud           90722 (10.1907 59.7572)
 7 Skien         9.61  59.2 Telemark           73330   (9.609 59.2096)
 8 Kristiansand  8.00  58.1 Vest-Agder         64057  (7.9956 58.1467)
 9 Sandnes       5.73  58.8 Rogaland           58694    (5.7333 58.85)
10 Tønsberg     10.4   59.3 Vestfold           56293 (10.4236 59.2981)
# ℹ 407 more rows
…
