| STV4030A - Wrangling in dplyr and tidyr
…
We use who_gov_norway_ministers as the input data, but we don’t assign the result to a new object. The result will then instead be printed in the console.

2

We group the data by year.

3

We now calculate multiple summary statistics for each year.

4

The n() function can be used to find the total number of observations within a group.

# A tibble: 56 × 11
    year share_female_ministers count_female_ministers count_ministers share_dna
   <dbl>                  <dbl>                  <int>           <int>     <dbl>
 1  1966                 0.133                       2              15         0
 2  1967                 0.133                       2              15         0
 3  1968                 0.133                       2              15         0
 4  1969                 0.133                       2              15         0
 5  1970                 0.133                       2              15         0
 6  1971                 0.0667                      1              15         1
 7  1972                 0.0667                      1              15         1
 8  1973                 0.2                         3              15         0
 9  1974                 0.2                         3              15         1
10  1975                 0.188                       3              16         1
# ℹ 46 more rows
# ℹ 6 more variables: share_hoyre <dbl>, share_sp <dbl>, share_venstre <dbl>,
#   share_frp <dbl>, share_sv <dbl>, share_krf <dbl>
…
print(percentages_and_counts)

1

We use across() inside mutate() (we may also use it inside summarize()). Using the .cols argument and the select() helper function contains() we specify that we want to do something with all the columns with “share” in the column name.

2

For the .fns argument we specify the function that should be applied across the selected columns. We may give the name of an existing function or we may define a function using function(). Our knowledge of how to define our own function now comes in handy!

3

Our function is in this case very simple. It takes the value x and multiplies it with 100. This will turn our shares into percentages.

# A tibble: 56 × 11
    year share_female_ministers count_female_ministers count_ministers share_dna
   <dbl>                  <dbl>                  <int>           <int>     <dbl>
 1  1966                  13.3                       2              15         0
 2  1967                  13.3                       2              15         0
 3  1968                  13.3                       2              15         0
 4  1969                  13.3                       2              15         0
 5  1970                  13.3                       2              15         0
 6  1971                   6.67                      1              15       100
 7  1972                   6.67                      1              15       100
 8  1973                  20                         3              15         0
 9  1974                  20                         3              15       100
10  1975                  18.8                       3              16       100
# ℹ 46 more rows
# ℹ 6 more variables: share_hoyre <dbl>, share_sp <dbl>, share_venstre <dbl>,
#   share_frp <dbl>, share_sv <dbl>, share_krf <dbl>

arrange()

We can change the order of the rows in the dataset by using arrange(). For instance, let’s say we wanted the rows in our share_female_ministers dataset to be sorted not by year, but by the share of female ministers. We would then then:

share_female_ministers <- share_female_ministers %>% 
  arrange(share_female_ministers)

If we print out share_female_ministers, the data.frame will now be sorted by the values on share_female_ministers$share_female_ministers:

print(share_female_ministers, n = 33)

# A tibble: 56 × 2
    year share_female_ministers
   <dbl>                  <dbl>
 1  1971                 0.0667
 2  1972                 0.0667
 3  1980                 0.125 
 4  1966                 0.133 
 5  1967                 0.133 
 6  1968                 0.133 
 7  1969                 0.133 
 8  1970                 0.133 
 9  1975                 0.188 
10  1973                 0.2   
11  1974                 0.2   
12  1983                 0.222 
13  1984                 0.222 
14  1985                 0.222 
15  1978                 0.235 
16  1982                 0.235 
17  1976                 0.25  
18  1977                 0.25  
19  1979                 0.25  
20  1981                 0.25  
21  1999                 0.4   
22  2020                 0.4   
23  2021                 0.4   
24  1990                 0.421 
25  1993                 0.421 
26  1994                 0.421 
27  1995                 0.421 
28  1996                 0.421 
29  2000                 0.421 
30  2001                 0.421 
31  2002                 0.421 
32  2003                 0.421 
33  2004                 0.421 
# ℹ 23 more rows

By default, the data will be arranged in ascending order (with the lowest values first). To instead arrange() the data in descending order (with the highest values first), we can use desc():

share_female_ministers <- share_female_ministers %>% 
  arrange(desc(share_female_ministers))
print(share_female_ministers, n = 33)

# A tibble: 56 × 2
    year share_female_ministers
   <dbl>                  <dbl>
 1  2013                  0.524
 2  1998                  0.5  
 3  2012                  0.5  
 4  2014                  0.5  
 5  2015                  0.5  
 6  2010                  0.476
 7  2011                  0.476
 8  1991                  0.474
 9  1992                  0.474
10  2006                  0.474
11  2007                  0.474
12  1997                  0.45 
13  2009                  0.45 
14  2017                  0.45 
15  2018                  0.45 
16  2019                  0.45 
17  1986                  0.444
18  1987                  0.444
19  1988                  0.444
20  1989                  0.444
21  2016                  0.444
22  2008                  0.429
23  1990                  0.421
24  1993                  0.421
25  1994                  0.421
26  1995                  0.421
27  1996                  0.421
28  2000                  0.421
29  2001                  0.421
30  2002                  0.421
31  2003                  0.421
32  2004                  0.421
33  2005                  0.421
# ℹ 23 more rows

distinct()

distinct() is useful for making sure that observations in the data are not duplicated. Let’s say we want to produce a list of all the prime ministers in Norway. We could start by using filter() to subset the data to prime ministers.

who_gov_norway_ministers %>% 
  filter(minister_type == "Prime Minister")

# A tibble: 56 × 12
    year    id position      name  gender birthyear deadyear party minister_type
   <dbl> <dbl> <chr>         <chr> <chr>      <dbl>    <dbl> <chr> <chr>        
 1  1966     2 Prime Minist… Per … Male        1913     1913 sp    Prime Minist…
 2  1967    18 Prime Minist… Per … Male        1913     1913 sp    Prime Minist…
 3  1968    34 Prime Minist… Per … Male        1913     1913 sp    Prime Minist…
 4  1969    50 Prime Minist… Per … Male        1913     1913 sp    Prime Minist…
 5  1970    66 Prime Minist… Per … Male        1913     1913 sp    Prime Minist…
 6  1971    82 Prime Minist… Tryg… Male        1910     1910 dna   Prime Minist…
 7  1972    98 Prime Minist… Tryg… Male        1910     1910 dna   Prime Minist…
 8  1973   114 Prime Minist… Lars… Male        1916     1916 krf   Prime Minist…
 9  1974   130 Prime Minist… Tryg… Male        1910     1910 dna   Prime Minist…
10  1975   146 Prime Minist… Tryg… Male        1910     1910 dna   Prime Minist…
# ℹ 46 more rows
# ℹ 3 more variables: age <dbl>, age_categorical <chr>,
#   age_when_first_entering_a_cabinet <dbl>
…
